[gd_scene load_steps=3 format=2]

[ext_resource path="res://blokoj/rajtigo/for_auth.tscn" type="PackedScene" id=1]
[ext_resource path="res://blokoj/rajtigo/auth_menuo.gd" type="Script" id=2]

[node name="Popup" type="Popup"]
margin_right = 528.0
margin_bottom = 270.0
rect_min_size = Vector2( 200, 200 )
script = ExtResource( 2 )
__meta__ = {
"_edit_use_anchors_": false
}

[node name="for_auth" parent="." instance=ExtResource( 1 )]
anchor_right = 1.0
anchor_bottom = 1.0
margin_right = 0.0
margin_bottom = 0.0

[node name="Button_x" type="Button" parent="for_auth"]
anchor_left = 1.0
anchor_right = 1.0
margin_left = -19.2385
margin_top = -0.0561218
margin_right = -0.238464
margin_bottom = 22.9439
rect_min_size = Vector2( 19, 23 )
size_flags_horizontal = 8
text = "x"
__meta__ = {
"_edit_use_anchors_": false
}
[connection signal="button_up" from="for_auth/Button_x" to="." method="_on_Button_x_button_up"]
