[gd_scene load_steps=3 format=2]

[ext_resource path="res://kerno/fenestroj/tipo_a1.tscn" type="PackedScene" id=1]
[ext_resource path="res://blokoj/kosmo/skriptoj/indicoj.gd" type="Script" id=2]

[node name="indicoj" instance=ExtResource( 1 )]
margin_left = 200.0
margin_top = 200.0
margin_right = 200.0
margin_bottom = 200.0
script = ExtResource( 2 )

[node name="VBox" parent="." index="0"]
visible = false

[node name="menuo_name" parent="VBox/HBox_top/top_texture2/HBox_buttons" index="0"]
margin_right = 155.0
text = "показатели"

[node name="Button_fix" parent="VBox/HBox_top/top_texture2/HBox_buttons" index="1"]
visible = false

[node name="Button_" parent="VBox/HBox_top/top_texture2/HBox_buttons" index="2"]
visible = false

[node name="Button_full" parent="VBox/HBox_top/top_texture2/HBox_buttons" index="4"]
visible = false

[node name="ItemList" type="ItemList" parent="VBox/body_texture" index="3"]
anchor_right = 1.0
anchor_bottom = 1.0
__meta__ = {
"_edit_use_anchors_": false
}

[connection signal="focus_entered" from="VBox/body_texture/ItemList" to="." method="_on_ItemList_focus_entered"]
