[gd_scene load_steps=3 format=2]

[ext_resource path="res://kerno/fenestroj/tipo_c1.tscn" type="PackedScene" id=1]
[ext_resource path="res://blokoj/eliro/eliro.gd" type="Script" id=2]

[node name="eliro" instance=ExtResource( 1 )]
script = ExtResource( 2 )

[node name="HBox_buttons" parent="tipo_c" index="1"]
anchor_left = 0.1
anchor_top = -9.53674e-09
anchor_bottom = -9.53674e-09

[node name="menuo_name" parent="tipo_c/HBox_buttons" index="0"]
margin_right = 157.0
text = "Выход"

[node name="Button_x" parent="tipo_c/HBox_buttons" index="1"]
margin_left = 161.0
margin_right = 180.0

[node name="Label" type="Label" parent="tipo_c" index="2"]
anchor_right = 1.0
anchor_bottom = 1.0
margin_left = 7.0
margin_top = 29.0
margin_right = -8.0
margin_bottom = -61.0
text = "Вы действительно
хотите выйти? "
align = 1
valign = 1

[node name="yes_button" type="Button" parent="tipo_c" index="3"]
anchor_left = 0.5
anchor_top = 1.0
anchor_right = 0.5
anchor_bottom = 1.0
margin_left = -57.0
margin_top = -55.0
margin_right = -21.0
margin_bottom = -32.0
text = "Да"
__meta__ = {
"_edit_use_anchors_": false
}

[node name="no_button" type="Button" parent="tipo_c" index="4"]
anchor_left = 0.5
anchor_top = 1.0
anchor_right = 0.5
anchor_bottom = 1.0
margin_left = 18.0223
margin_top = -55.1198
margin_right = 54.0223
margin_bottom = -32.1198
text = "Нет"
__meta__ = {
"_edit_use_anchors_": false
}

[connection signal="gui_input" from="tipo_c" to="." method="_drag"]
[connection signal="button_up" from="tipo_c/yes_button" to="." method="_on_yes_button_button_up"]
[connection signal="button_up" from="tipo_c/no_button" to="." method="_on_no_button_button_up"]
