[gd_scene load_steps=4 format=2]

[ext_resource path="res://blokoj/asteroidoj/resursoj/ast_ice_5_cr.glb" type="PackedScene" id=1]
[ext_resource path="res://blokoj/asteroidoj/skriptoj/ast_.gd" type="Script" id=2]

[sub_resource type="ConcavePolygonShape" id=1]
data = PoolVector3Array( -9.3133, 13.6807, -9.3989, -0.79, 15.6428, -11.6553, -3.245, 16.5637, -5.6307, -9.3133, 13.6807, -9.3989, -3.245, 16.5637, -5.6307, -10.4468, 15.3902, 0.0842, -10.4468, 15.3902, 0.0842, -3.245, 16.5637, -5.6307, -6.8665, 17.0389, 3.7614, -6.8665, 17.0389, 3.7614, -3.245, 16.5637, -5.6307, -4.6326, 17.4225, 4.6601, -10.4468, 15.3902, 0.0842, -6.8665, 17.0389, 3.7614, -11.517, 13.691, 1.9501, -6.8665, 17.0389, 3.7614, -4.6326, 17.4225, 4.6601, -9.3719, 12.6505, 7.2907, -11.517, 13.691, 1.9501, -6.8665, 17.0389, 3.7614, -9.3719, 12.6505, 7.2907, -4.6326, 17.4225, 4.6601, -5.9038, 10.8816, 9.488, -9.3719, 12.6505, 7.2907, 2.5412, 15.538, -12.5035, 5.6539, 12.563, -12.291, 4.0062, 15.5054, -11.618, -11.2749, 13.158, -5.1206, -9.3133, 13.6807, -9.3989, -10.4468, 15.3902, 0.0842, -9.3719, 12.6505, 7.2907, -5.9038, 10.8816, 9.488, -10.6946, 8.4303, 10.1862, -1.3705, 15.7136, 6.5431, 3.579, 9.7054, 6.2518, -1.5624, 7.4688, 9.6138, 1.7966, 16.7302, -9.4919, 9.7478, 11.2927, -9.531, 3.7892, 12.4095, 4.7523, 2.2258, -7.5902, 16.1525, 6.5028, -8.7974, 11.7675, 2.1569, -9.0484, 16.0475, -6.8057, 2.3683, 12.8536, 2.2258, -7.5902, 16.1525, -1.6986, -7.4494, 16.4727, -10.8759, 0.5279, 13.2536, -1.6986, -7.4494, 16.4727, -6.4511, -7.205, 15.86, -6.8057, 2.3683, 12.8536, -1.6986, -7.4494, 16.4727, -10.8759, 0.5279, 13.2536, -5.9038, 10.8816, 9.488, -6.746, 6.5525, 11.1544, -9.9613, 6.5578, 11.308, -2.2927, -10.4807, 15.2026, -8.1435, -12.5139, 10.9698, -6.4511, -7.205, 15.86, -6.4511, -7.205, 15.86, -8.1435, -12.5139, 10.9698, -12.1792, -6.2797, 13.9089, -6.746, 6.5525, 11.1544, -6.8057, 2.3683, 12.8536, -10.8759, 0.5279, 13.2536, -10.8759, 0.5279, 13.2536, -13.6307, -0.4044, 12.4618, -9.9613, 6.5578, 11.308, -0.7783, -13.2539, 12.9387, -8.1435, -12.5139, 10.9698, -2.2927, -10.4807, 15.2026, 5.5166, -13.3572, 7.7804, -0.7783, -13.2539, 12.9387, 2.1569, -9.0484, 16.0475, 2.1569, -9.0484, 16.0475, -0.7783, -13.2539, 12.9387, -2.2927, -10.4807, 15.2026, 6.5028, -8.7974, 11.7675, 5.5166, -13.3572, 7.7804, 2.1569, -9.0484, 16.0475, -12.1792, -6.2797, 13.9089, -14.2794, -12.998, 6.6131, -15.6939, -5.944, 7.1075, -13.6307, -0.4044, 12.4618, -12.1792, -6.2797, 13.9089, -15.6939, -5.944, 7.1075, -11.8582, 6.9797, 7.6365, -13.6307, -0.4044, 12.4618, -16.6003, 0.5441, 5.8374, -16.6003, 0.5441, 5.8374, -13.6307, -0.4044, 12.4618, -15.6939, -5.944, 7.1075, -12.7023, 9.5728, 5.4169, -11.8582, 6.9797, 7.6365, -13.589, 7.1403, 1.5409, -16.2508, -9.9017, 0.1005, -14.2794, -12.998, 6.6131, -14.1788, -13.5139, 2.4874, -15.6939, -5.944, 7.1075, -14.2794, -12.998, 6.6131, -16.2508, -9.9017, 0.1005, -16.6003, 0.5441, 5.8374, -15.6939, -5.944, 7.1075, -17.821, -0.8167, 0.7191, -11.8582, 6.9797, 7.6365, -16.6003, 0.5441, 5.8374, -13.589, 7.1403, 1.5409, -11.517, 13.691, 1.9501, -13.589, 7.1403, 1.5409, -13.1804, 6.8924, -5.6135, -17.821, -0.8167, 0.7191, -16.2508, -9.9017, 0.1005, -16.8408, -2.1975, -6.6207, -16.0142, 3.5643, -7.7755, -17.821, -0.8167, 0.7191, -16.5135, 1.3732, -8.7382, -13.589, 7.1403, 1.5409, -16.6003, 0.5441, 5.8374, -16.0142, 3.5643, -7.7755, -13.1804, 6.8924, -5.6135, -13.589, 7.1403, 1.5409, -16.0142, 3.5643, -7.7755, -16.8408, -2.1975, -6.6207, -16.2508, -9.9017, 0.1005, -14.4697, -10.2168, -6.4885, -14.4697, -10.2168, -6.4885, -8.9179, -14.4444, -12.1173, -12.1086, -7.6641, -10.8463, -16.8408, -2.1975, -6.6207, -13.2955, 0.9224, -12.9166, -16.5135, 1.3732, -8.7382, -8.1435, -12.5139, 10.9698, -14.2794, -12.998, 6.6131, -12.1792, -6.2797, 13.9089, -10.6946, 8.4303, 10.1862, -9.9613, 6.5578, 11.308, -11.8582, 6.9797, 7.6365, -11.517, 13.691, 1.9501, -13.1804, 6.8924, -5.6135, -11.2749, 13.158, -5.1206, -13.1804, 6.8924, -5.6135, -10.1247, 6.6275, -10.8715, -9.3133, 13.6807, -9.3989, -16.5135, 1.3732, -8.7382, -13.2955, 0.9224, -12.9166, -16.0142, 3.5643, -7.7755, -13.2955, 0.9224, -12.9166, -12.1086, -7.6641, -10.8463, -11.1349, -2.9299, -13.7521, -11.2863, -14.2499, -7.5033, -8.9179, -14.4444, -12.1173, -14.4697, -10.2168, -6.4885, -14.1788, -13.5139, 2.4874, -13.1475, -12.5267, -3.8531, -16.2508, -9.9017, 0.1005, -8.9179, -14.4444, -12.1173, -11.2863, -14.2499, -7.5033, -7.9292, -16.2485, -4.0278, 2.5412, 15.538, -12.5035, -1.5893, 17.4581, -1.1634, -0.79, 15.6428, -11.6553, 1.7966, 16.7302, -9.4919, -1.5893, 17.4581, -1.1634, 2.5412, 15.538, -12.5035, -8.9179, -14.4444, -12.1173, -7.9292, -16.2485, -4.0278, -2.6242, -16.9793, -12.5137, -2.6242, -16.9793, -12.5137, -7.9292, -16.2485, -4.0278, -2.8584, -17.985, -5.7211, -2.6242, -16.9793, -12.5137, -2.8584, -17.985, -5.7211, 0.8022, -16.918, -11.9223, 0.8022, -16.918, -11.9223, -1.5201, -18.368, 0.5224, 7.9302, -16.5402, -1.3466, 8.0807, -15.4677, -10.6857, 0.8022, -16.918, -11.9223, 7.9302, -16.5402, -1.3466, -1.5201, -18.368, 0.5224, -10.13, -15.6018, 0.4557, -4.1175, -15.8808, 8.7066, 7.9302, -16.5402, -1.3466, 5.5166, -13.3572, 7.7804, 9.9448, -14.8173, 1.7369, -1.5201, -18.368, 0.5224, -0.7783, -13.2539, 12.9387, 5.5166, -13.3572, 7.7804, 8.5053, -7.0591, -16.4406, 6.4287, -8.2478, -17.1227, 8.0807, -15.4677, -10.6857, 8.5053, -7.0591, -16.4406, 8.0807, -15.4677, -10.6857, 13.7663, -9.2454, -7.5458, 13.7663, -9.2454, -7.5458, 8.0807, -15.4677, -10.6857, 10.9194, -13.8246, -6.9912, -4.1175, -15.8808, 8.7066, -14.2794, -12.998, 6.6131, -8.1435, -12.5139, 10.9698, -14.1788, -13.5139, 2.4874, -14.2794, -12.998, 6.6131, -10.13, -15.6018, 0.4557, -10.13, -15.6018, 0.4557, -14.2794, -12.998, 6.6131, -4.1175, -15.8808, 8.7066, -13.1475, -12.5267, -3.8531, -14.1788, -13.5139, 2.4874, -10.13, -15.6018, 0.4557, -11.2863, -14.2499, -7.5033, -13.1475, -12.5267, -3.8531, -7.9292, -16.2485, -4.0278, 15.6621, -4.0085, -8.4503, 8.5053, -7.0591, -16.4406, 13.7663, -9.2454, -7.5458, 15.6621, -4.0085, -8.4503, 13.7663, -9.2454, -7.5458, 14.7673, -6.0346, 3.6582, 15.5768, -1.1286, 1.6305, 15.6621, -4.0085, -8.4503, 14.7673, -6.0346, 3.6582, 15.6621, -4.0085, -8.4503, 15.5768, -1.1286, 1.6305, 16.1315, -1.2182, -10.1214, 10.6349, 7.2979, -7.135, 15.8348, 1.9116, -9.0266, 8.983, 7.193, -0.5286, 14.7673, -6.0346, 3.6582, 13.7663, -9.2454, -7.5458, 13.8188, -8.6232, 4.4032, 8.983, 7.193, -0.5286, 15.3222, 1.6639, 0.3344, 11.9688, 0.7254, 5.7411, 8.983, 7.193, -0.5286, 3.9512, 6.6006, 4.7122, 7.926, 10.0309, 0.8812, 14.7673, -6.0346, 3.6582, 13.8188, -8.6232, 4.4032, 10.7132, -8.3011, 8.0414, 11.9688, 0.7254, 5.7411, 14.7673, -6.0346, 3.6582, 10.7132, -8.3011, 8.0414, 12.4579, -2.3274, -14.2678, 16.1315, -1.2182, -10.1214, 12.88, 2.2494, -13.3727, 12.88, 2.2494, -13.3727, 15.8348, 1.9116, -9.0266, 10.1524, 6.9802, -9.6628, 7.6872, 6.696, -12.6671, 10.1524, 6.9802, -9.6628, 9.7478, 11.2927, -9.531, 10.1524, 6.9802, -9.6628, 10.6349, 7.2979, -7.135, 9.7478, 11.2927, -9.531, 9.7478, 11.2927, -9.531, 7.926, 10.0309, 0.8812, 3.7892, 12.4095, 4.7523, 3.7892, 12.4095, 4.7523, 7.926, 10.0309, 0.8812, 3.579, 9.7054, 6.2518, -1.5624, 7.4688, 9.6138, 3.9512, 6.6006, 4.7122, -2.6247, 5.3097, 10.6859, 13.8188, -8.6232, 4.4032, 10.9194, -13.8246, -6.9912, 9.9448, -14.8173, 1.7369, -5.2071, 7.1907, -13.276, -10.6826, 2.857, -14.0797, 1.6311, 3.1022, -16.7889, -5.6222, -12.3047, -14.993, -5.3676, -15.3144, -14.4729, 2.634, -9.9086, -16.8178, -2.4099, -4.8697, -16.2889, -5.6222, -12.3047, -14.993, 2.634, -9.9086, -16.8178, -5.2071, 7.1907, -13.276, 1.6311, 3.1022, -16.7889, 3.3043, 7.0513, -14.1552, -0.79, 15.6428, -11.6553, -5.2071, 7.1907, -13.276, 2.5412, 15.538, -12.5035, 1.6311, 3.1022, -16.7889, -2.4099, -4.8697, -16.2889, 2.634, -9.9086, -16.8178, 1.6311, 3.1022, -16.7889, 7.3298, 2.5039, -16.6753, 3.3043, 7.0513, -14.1552, 7.3298, 2.5039, -16.6753, 8.5053, -7.0591, -16.4406, 12.4579, -2.3274, -14.2678, 3.3043, 7.0513, -14.1552, 7.6872, 6.696, -12.6671, 5.6539, 12.563, -12.291, -9.3133, 13.6807, -9.3989, -10.1247, 6.6275, -10.8715, -5.2071, 7.1907, -13.276, -9.3133, 13.6807, -9.3989, -5.2071, 7.1907, -13.276, -0.79, 15.6428, -11.6553, 7.3298, 2.5039, -16.6753, 12.88, 2.2494, -13.3727, 7.6872, 6.696, -12.6671, 2.5412, 15.538, -12.5035, 4.0062, 15.5054, -11.618, 1.7966, 16.7302, -9.4919, -6.4511, -7.205, 15.86, 2.1569, -9.0484, 16.0475, -2.2927, -10.4807, 15.2026, -6.4511, -7.205, 15.86, -1.6986, -7.4494, 16.4727, 2.1569, -9.0484, 16.0475, -0.79, 15.6428, -11.6553, -1.5893, 17.4581, -1.1634, -3.245, 16.5637, -5.6307, 1.7966, 16.7302, -9.4919, 3.7892, 12.4095, 4.7523, -1.5893, 17.4581, -1.1634, -1.5893, 17.4581, -1.1634, 3.7892, 12.4095, 4.7523, -1.3705, 15.7136, 6.5431, -1.5893, 17.4581, -1.1634, -1.3705, 15.7136, 6.5431, -4.6326, 17.4225, 4.6601, -3.245, 16.5637, -5.6307, -1.5893, 17.4581, -1.1634, -4.6326, 17.4225, 4.6601, -1.3705, 15.7136, 6.5431, -5.9038, 10.8816, 9.488, -4.6326, 17.4225, 4.6601, 5.6539, 12.563, -12.291, 9.7478, 11.2927, -9.531, 4.0062, 15.5054, -11.618, -10.4468, 15.3902, 0.0842, -11.517, 13.691, 1.9501, -11.2749, 13.158, -5.1206, -1.5624, 7.4688, 9.6138, -5.9038, 10.8816, 9.488, -1.3705, 15.7136, 6.5431, 3.7892, 12.4095, 4.7523, 3.579, 9.7054, 6.2518, -1.3705, 15.7136, 6.5431, 9.7478, 11.2927, -9.531, 1.7966, 16.7302, -9.4919, 4.0062, 15.5054, -11.618, -2.6247, 5.3097, 10.6859, 3.0838, -2.1878, 13.1774, -6.746, 6.5525, 11.1544, 3.0838, -2.1878, 13.1774, 2.2258, -7.5902, 16.1525, -6.8057, 2.3683, 12.8536, 3.0838, -2.1878, 13.1774, -6.8057, 2.3683, 12.8536, -6.746, 6.5525, 11.1544, -2.6247, 5.3097, 10.6859, -6.746, 6.5525, 11.1544, -1.5624, 7.4688, 9.6138, 2.2258, -7.5902, 16.1525, 2.1569, -9.0484, 16.0475, -1.6986, -7.4494, 16.4727, -12.1086, -7.6641, -10.8463, -16.8408, -2.1975, -6.6207, -14.4697, -10.2168, -6.4885, -13.2955, 0.9224, -12.9166, -16.8408, -2.1975, -6.6207, -12.1086, -7.6641, -10.8463, -6.746, 6.5525, 11.1544, -10.8759, 0.5279, 13.2536, -9.9613, 6.5578, 11.308, 6.5028, -8.7974, 11.7675, 2.2258, -7.5902, 16.1525, 6.4687, -0.4235, 10.7306, 6.4687, -0.4235, 10.7306, 2.2258, -7.5902, 16.1525, 3.0838, -2.1878, 13.1774, 6.4687, -0.4235, 10.7306, 3.0838, -2.1878, 13.1774, -2.6247, 5.3097, 10.6859, -6.746, 6.5525, 11.1544, -5.9038, 10.8816, 9.488, -1.5624, 7.4688, 9.6138, -5.9038, 10.8816, 9.488, -9.9613, 6.5578, 11.308, -10.6946, 8.4303, 10.1862, -12.1792, -6.2797, 13.9089, -13.6307, -0.4044, 12.4618, -10.8759, 0.5279, 13.2536, -6.4511, -7.205, 15.86, -12.1792, -6.2797, 13.9089, -10.8759, 0.5279, 13.2536, -10.6946, 8.4303, 10.1862, -11.8582, 6.9797, 7.6365, -12.7023, 9.5728, 5.4169, -12.7023, 9.5728, 5.4169, -13.589, 7.1403, 1.5409, -11.517, 13.691, 1.9501, -15.6939, -5.944, 7.1075, -16.2508, -9.9017, 0.1005, -17.821, -0.8167, 0.7191, -16.6003, 0.5441, 5.8374, -17.821, -0.8167, 0.7191, -16.0142, 3.5643, -7.7755, -17.821, -0.8167, 0.7191, -16.8408, -2.1975, -6.6207, -16.5135, 1.3732, -8.7382, -14.4697, -10.2168, -6.4885, -13.1475, -12.5267, -3.8531, -11.2863, -14.2499, -7.5033, -14.4697, -10.2168, -6.4885, -16.2508, -9.9017, 0.1005, -13.1475, -12.5267, -3.8531, -9.9613, 6.5578, 11.308, -13.6307, -0.4044, 12.4618, -11.8582, 6.9797, 7.6365, -10.6946, 8.4303, 10.1862, -12.7023, 9.5728, 5.4169, -9.3719, 12.6505, 7.2907, -9.3719, 12.6505, 7.2907, -12.7023, 9.5728, 5.4169, -11.517, 13.691, 1.9501, -11.2749, 13.158, -5.1206, -13.1804, 6.8924, -5.6135, -9.3133, 13.6807, -9.3989, -16.0142, 3.5643, -7.7755, -10.1247, 6.6275, -10.8715, -13.1804, 6.8924, -5.6135, -16.0142, 3.5643, -7.7755, -10.6826, 2.857, -14.0797, -10.1247, 6.6275, -10.8715, -13.2955, 0.9224, -12.9166, -10.6826, 2.857, -14.0797, -16.0142, 3.5643, -7.7755, 9.9448, -14.8173, 1.7369, 8.0807, -15.4677, -10.6857, 7.9302, -16.5402, -1.3466, 9.9448, -14.8173, 1.7369, 10.9194, -13.8246, -6.9912, 8.0807, -15.4677, -10.6857, 0.8022, -16.918, -11.9223, 8.0807, -15.4677, -10.6857, 2.634, -9.9086, -16.8178, 2.634, -9.9086, -16.8178, 8.0807, -15.4677, -10.6857, 6.4287, -8.2478, -17.1227, -7.9292, -16.2485, -4.0278, -10.13, -15.6018, 0.4557, -2.8584, -17.985, -5.7211, -10.13, -15.6018, 0.4557, -1.5201, -18.368, 0.5224, -2.8584, -17.985, -5.7211, -2.8584, -17.985, -5.7211, -1.5201, -18.368, 0.5224, 0.8022, -16.918, -11.9223, 7.926, 10.0309, 0.8812, 10.6349, 7.2979, -7.135, 8.983, 7.193, -0.5286, 7.926, 10.0309, 0.8812, 9.7478, 11.2927, -9.531, 10.6349, 7.2979, -7.135, 7.9302, -16.5402, -1.3466, -1.5201, -18.368, 0.5224, 5.5166, -13.3572, 7.7804, -4.1175, -15.8808, 8.7066, -0.7783, -13.2539, 12.9387, -1.5201, -18.368, 0.5224, -8.9179, -14.4444, -12.1173, -2.6242, -16.9793, -12.5137, -5.3676, -15.3144, -14.4729, -2.6242, -16.9793, -12.5137, 0.8022, -16.918, -11.9223, 2.634, -9.9086, -16.8178, 9.9448, -14.8173, 1.7369, 6.5028, -8.7974, 11.7675, 10.7132, -8.3011, 8.0414, 5.5166, -13.3572, 7.7804, 6.5028, -8.7974, 11.7675, 9.9448, -14.8173, 1.7369, -4.1175, -15.8808, 8.7066, -8.1435, -12.5139, 10.9698, -0.7783, -13.2539, 12.9387, -13.1475, -12.5267, -3.8531, -10.13, -15.6018, 0.4557, -7.9292, -16.2485, -4.0278, 10.1524, 6.9802, -9.6628, 15.8348, 1.9116, -9.0266, 10.6349, 7.2979, -7.135, 15.8348, 1.9116, -9.0266, 15.3222, 1.6639, 0.3344, 8.983, 7.193, -0.5286, 15.5768, -1.1286, 1.6305, 15.8348, 1.9116, -9.0266, 16.1315, -1.2182, -10.1214, 15.3222, 1.6639, 0.3344, 15.8348, 1.9116, -9.0266, 15.5768, -1.1286, 1.6305, -2.6247, 5.3097, 10.6859, 11.9688, 0.7254, 5.7411, 6.4687, -0.4235, 10.7306, -2.6247, 5.3097, 10.6859, 3.9512, 6.6006, 4.7122, 11.9688, 0.7254, 5.7411, 15.3222, 1.6639, 0.3344, 15.5768, -1.1286, 1.6305, 11.9688, 0.7254, 5.7411, 14.7673, -6.0346, 3.6582, 11.9688, 0.7254, 5.7411, 15.5768, -1.1286, 1.6305, 8.983, 7.193, -0.5286, 11.9688, 0.7254, 5.7411, 3.9512, 6.6006, 4.7122, 11.9688, 0.7254, 5.7411, 10.7132, -8.3011, 8.0414, 6.4687, -0.4235, 10.7306, -5.6222, -12.3047, -14.993, -8.9179, -14.4444, -12.1173, -5.3676, -15.3144, -14.4729, -5.6222, -12.3047, -14.993, -11.1349, -2.9299, -13.7521, -8.9179, -14.4444, -12.1173, 12.4579, -2.3274, -14.2678, 8.5053, -7.0591, -16.4406, 15.6621, -4.0085, -8.4503, 12.4579, -2.3274, -14.2678, 15.6621, -4.0085, -8.4503, 16.1315, -1.2182, -10.1214, 16.1315, -1.2182, -10.1214, 15.8348, 1.9116, -9.0266, 12.88, 2.2494, -13.3727, 3.9512, 6.6006, 4.7122, 3.579, 9.7054, 6.2518, 7.926, 10.0309, 0.8812, 3.9512, 6.6006, 4.7122, -1.5624, 7.4688, 9.6138, 3.579, 9.7054, 6.2518, 10.7132, -8.3011, 8.0414, 6.5028, -8.7974, 11.7675, 6.4687, -0.4235, 10.7306, 13.8188, -8.6232, 4.4032, 9.9448, -14.8173, 1.7369, 10.7132, -8.3011, 8.0414, 13.7663, -9.2454, -7.5458, 10.9194, -13.8246, -6.9912, 13.8188, -8.6232, 4.4032, -10.1247, 6.6275, -10.8715, -10.6826, 2.857, -14.0797, -5.2071, 7.1907, -13.276, -5.6222, -12.3047, -14.993, -2.4099, -4.8697, -16.2889, -11.1349, -2.9299, -13.7521, -11.1349, -2.9299, -13.7521, -2.4099, -4.8697, -16.2889, -10.6826, 2.857, -14.0797, -2.4099, -4.8697, -16.2889, 1.6311, 3.1022, -16.7889, -10.6826, 2.857, -14.0797, -5.2071, 7.1907, -13.276, 3.3043, 7.0513, -14.1552, 2.5412, 15.538, -12.5035, 2.634, -9.9086, -16.8178, 6.4287, -8.2478, -17.1227, 1.6311, 3.1022, -16.7889, 1.6311, 3.1022, -16.7889, 6.4287, -8.2478, -17.1227, 7.3298, 2.5039, -16.6753, 6.4287, -8.2478, -17.1227, 8.5053, -7.0591, -16.4406, 7.3298, 2.5039, -16.6753, 7.3298, 2.5039, -16.6753, 7.6872, 6.696, -12.6671, 3.3043, 7.0513, -14.1552, -8.9179, -14.4444, -12.1173, -11.1349, -2.9299, -13.7521, -12.1086, -7.6641, -10.8463, -11.1349, -2.9299, -13.7521, -10.6826, 2.857, -14.0797, -13.2955, 0.9224, -12.9166, 3.3043, 7.0513, -14.1552, 5.6539, 12.563, -12.291, 2.5412, 15.538, -12.5035, 7.6872, 6.696, -12.6671, 9.7478, 11.2927, -9.531, 5.6539, 12.563, -12.291, 12.88, 2.2494, -13.3727, 10.1524, 6.9802, -9.6628, 7.6872, 6.696, -12.6671, 12.4579, -2.3274, -14.2678, 12.88, 2.2494, -13.3727, 7.3298, 2.5039, -16.6753, -5.3676, -15.3144, -14.4729, -2.6242, -16.9793, -12.5137, 2.634, -9.9086, -16.8178 )

[node name="ast_ice_5_cr" instance=ExtResource( 1 )]
script = ExtResource( 2 )

[node name="StaticBody" type="StaticBody" parent="ast_ice_5" index="0"]

[node name="CollisionShape" type="CollisionShape" parent="ast_ice_5/StaticBody" index="0"]
shape = SubResource( 1 )

[connection signal="input_event" from="ast_ice_5/StaticBody" to="." method="_on_StaticBody_input_event"]
