[gd_scene load_steps=4 format=2]

[ext_resource path="res://blokoj/asteroidoj/resursoj/ast_3_cr.glb" type="PackedScene" id=1]
[ext_resource path="res://blokoj/asteroidoj/skriptoj/ast_.gd" type="Script" id=2]

[sub_resource type="ConcavePolygonShape" id=1]
data = PoolVector3Array( 5.1925, 10.8524, -7.8859, 7.556, 11.8733, -4.9153, 3.1081, 12.3027, -6.0776, 2.6174, 10.2857, -11.7952, 5.1925, 10.8524, -7.8859, 0.4092, 12.8876, -8.3019, 0.4092, 12.8876, -8.3019, 3.1081, 12.3027, -6.0776, -3.5893, 12.7099, -5.7616, 3.1081, 12.3027, -6.0776, 5.6548, 12.6525, -2.3553, -3.5893, 12.7099, -5.7616, -5.527, 11.7333, -9.1936, -2.7242, 13.1256, -8.5261, -3.5893, 12.7099, -5.7616, 5.6548, 12.6525, -2.3553, 7.6388, 13.1117, 0.4118, 4.3174, 12.9628, 0.5361, 7.6388, 13.1117, 0.4118, 7.5323, 12.067, 5.1964, 4.3174, 12.9628, 0.5361, -3.2671, 13.748, -2.9064, 0.0394, 12.4435, 2.9569, -4.2971, 12.7316, -0.6793, -4.2971, 12.7316, -0.6793, 0.0394, 12.4435, 2.9569, -1.9008, 10.0617, 5.4223, -4.3264, 9.5943, 3.8005, -4.2971, 12.7316, -0.6793, -1.9008, 10.0617, 5.4223, 4.3174, 12.9628, 0.5361, 7.5323, 12.067, 5.1964, 0.0394, 12.4435, 2.9569, 0.0394, 12.4435, 2.9569, 7.5323, 12.067, 5.1964, 0.231, 8.9706, 8.1868, 0.0394, 12.4435, 2.9569, 0.231, 8.9706, 8.1868, -1.9008, 10.0617, 5.4223, 0.231, 8.9706, 8.1868, 7.5323, 12.067, 5.1964, 3.2136, 7.3412, 10.9454, 6.4324, 8.8368, -9.7867, 7.556, 11.8733, -4.9153, 5.1925, 10.8524, -7.8859, 6.4324, 8.8368, -9.7867, 5.1925, 10.8524, -7.8859, 2.6174, 10.2857, -11.7952, -2.1542, 11.5987, -10.4504, 0.6414, 8.5215, -13.1179, 2.6174, 10.2857, -11.7952, -1.9464, 8.3913, -11.8191, -2.1542, 11.5987, -10.4504, -5.2218, 7.7415, -12.0434, -8.4424, 9.0234, -8.9873, -5.2218, 7.7415, -12.0434, -5.527, 11.7333, -9.1936, -7.6341, 7.278, -0.705, -7.5204, 10.6368, -4.3377, -4.3264, 9.5943, 3.8005, -8.6145, 7.5484, 5.7168, -4.3264, 9.5943, 3.8005, -7.7474, 6.6973, 9.044, -1.9008, 10.0617, 5.4223, -3.0886, 6.201, 10.693, -4.5029, 7.2511, 8.1261, -4.3264, 9.5943, 3.8005, -1.9008, 10.0617, 5.4223, -4.5029, 7.2511, 8.1261, -4.5029, 7.2511, 8.1261, -3.0886, 6.201, 10.693, -7.7474, 6.6973, 9.044, 5.7385, 6.5528, 10.9539, 10.9575, 7.5845, 8.9409, 8.9171, 5.424, 11.7874, 8.7208, -12.7341, 6.3121, 3.8109, -10.5305, 10.1392, 6.1744, -7.0748, 12.6682, 12.337, -5.5218, 9.1824, 6.1744, -7.0748, 12.6682, 9.4301, -2.9065, 12.6084, 9.4301, -2.9065, 12.6084, 5.0071, -3.1825, 14.751, 5.7194, 1.3876, 13.9652, 6.1744, -7.0748, 12.6682, 3.8109, -10.5305, 10.1392, 2.6835, -7.8112, 14.1327, 6.1744, -7.0748, 12.6682, 2.6835, -7.8112, 14.1327, 1.3021, -5.0475, 14.4274, 9.4301, -2.9065, 12.6084, 6.1744, -7.0748, 12.6682, 5.0071, -3.1825, 14.751, 2.6835, -7.8112, 14.1327, 3.8109, -10.5305, 10.1392, -0.3107, -10.6812, 11.2934, 1.3021, -5.0475, 14.4274, 2.6835, -7.8112, 14.1327, -2.5633, -6.2503, 13.5874, -0.9857, -8.5465, 13.7096, -0.3107, -10.6812, 11.2934, -3.7524, -8.9995, 11.3529, -2.4223, 0.3108, 14.6141, -5.1473, -4.4071, 14.3296, -7.0534, -1.0009, 14.0828, -5.1473, -4.4071, 14.3296, -6.307, -8.3423, 11.2346, -8.4907, -4.6953, 12.2256, -7.0534, -1.0009, 14.0828, -8.4907, -4.6953, 12.2256, -9.314, -0.8806, 11.8205, -4.1962, 3.6316, 12.4965, -7.0534, -1.0009, 14.0828, -8.7905, 2.3689, 11.5619, 10.9839, -10.5755, 5.8525, 8.7208, -12.7341, 6.3121, 12.337, -5.5218, 9.1824, 13.7653, 3.7939, 9.4701, 10.1231, 1.4147, 12.6076, 8.9171, 5.424, 11.7874, 13.7653, 3.7939, 9.4701, 8.9171, 5.424, 11.7874, 10.9575, 7.5845, 8.9409, 5.7194, 1.3876, 13.9652, -2.4223, 0.3108, 14.6141, 1.1639, 4.8215, 12.5671, -7.7474, 6.6973, 9.044, -4.1962, 3.6316, 12.4965, -8.7905, 2.3689, 11.5619, -8.7905, 2.3689, 11.5619, -9.314, -0.8806, 11.8205, -10.7211, 3.3903, 7.9603, -9.314, -0.8806, 11.8205, -8.4907, -4.6953, 12.2256, -11.8584, -1.4498, 5.4557, -8.4907, -4.6953, 12.2256, -7.9661, -7.0799, 10.4253, -9.7004, -8.4127, 4.4721, -8.6145, 7.5484, 5.7168, -10.7211, 3.3903, 7.9603, -11.0284, 3.8324, 5.8694, -8.6145, 7.5484, 5.7168, -11.0284, 3.8324, 5.8694, -9.7649, 5.9214, 3.7979, -11.8584, -1.4498, 5.4557, -11.3858, -5.3405, 1.7739, -11.4016, 0.0921, 1.7123, -9.7649, 5.9214, 3.7979, -11.0284, 3.8324, 5.8694, -11.4016, 0.0921, 1.7123, -9.7649, 5.9214, 3.7979, -11.4016, 0.0921, 1.7123, -9.4783, 3.355, -0.8176, -11.3858, -5.3405, 1.7739, -9.66, -8.5366, -1.2964, -10.2259, -3.588, -1.8012, -11.3858, -5.3405, 1.7739, -10.2259, -3.588, -1.8012, -11.4016, 0.0921, 1.7123, -11.4016, 0.0921, 1.7123, -10.2259, -3.588, -1.8012, -8.5164, 1.0691, -3.4667, -9.66, -8.5366, -1.2964, -8.7559, -9.6848, -3.9077, -9.2571, -7.0003, -6.5187, -10.0241, -3.3802, -7.9901, -9.66, -8.5366, -1.2964, -9.2571, -7.0003, -6.5187, -10.2259, -3.588, -1.8012, -10.0241, -3.3802, -7.9901, -10.0835, 0.5657, -6.8573, -8.5164, 1.0691, -3.4667, -10.0835, 0.5657, -6.8573, -9.2957, 3.7687, -4.0059, -7.6341, 7.278, -0.705, -9.2957, 3.7687, -4.0059, -9.021, 8.338, -6.2258, -9.2957, 3.7687, -4.0059, -10.0835, 0.5657, -6.8573, -9.021, 8.338, -6.2258, -10.7211, 3.3903, 7.9603, -9.314, -0.8806, 11.8205, -11.8584, -1.4498, 5.4557, -7.7474, 6.6973, 9.044, -10.7211, 3.3903, 7.9603, -8.6145, 7.5484, 5.7168, -4.3264, 9.5943, 3.8005, -8.6145, 7.5484, 5.7168, -9.7649, 5.9214, 3.7979, -4.3264, 9.5943, 3.8005, -9.7649, 5.9214, 3.7979, -7.6341, 7.278, -0.705, -10.0241, -3.3802, -7.9901, -9.2571, -7.0003, -6.5187, -8.3902, -3.8558, -9.8596, -9.7004, -8.4127, 4.4721, -9.66, -8.5366, -1.2964, -11.3858, -5.3405, 1.7739, 2.3498, -12.6601, -8.0134, -0.1382, -13.0824, -8.5822, 1.955, -14.166, -6.2994, 1.955, -14.166, -6.2994, -0.1382, -13.0824, -8.5822, 0.7469, -14.6159, -3.4901, 2.3498, -12.6601, -8.0134, 1.955, -14.166, -6.2994, 4.5149, -13.3442, -7.3405, -3.677, -10.8803, -8.2291, -7.5752, -11.4033, -0.3309, -3.3501, -13.5972, -1.632, -3.677, -10.8803, -8.2291, -3.3501, -13.5972, -1.632, -2.0311, -12.5338, -8.1448, 4.5149, -13.3442, -7.3405, 1.955, -14.166, -6.2994, 4.448, -14.9903, -3.0215, -3.3501, -13.5972, -1.632, -0.7631, -13.8699, 0.3692, 0.7469, -14.6159, -3.4901, 1.955, -14.166, -6.2994, 0.7469, -14.6159, -3.4901, 1.3658, -15.4452, 0.4827, -4.6769, -12.1607, 1.2295, -7.5752, -11.4033, -0.3309, -6.3049, -11.3147, 5.1223, 1.3658, -15.4452, 0.4827, 1.8809, -15.1379, 4.4689, 4.8138, -15.8368, 0.4243, -4.6769, -12.1607, 1.2295, -4.4551, -11.0474, 6.8801, -1.5252, -12.86, 4.7836, 1.8809, -15.1379, 4.4689, -1.5252, -12.86, 4.7836, 2.9061, -14.0988, 6.7583, -1.5252, -12.86, 4.7836, -2.0816, -12.5889, 8.0166, 2.9061, -14.0988, 6.7583, -4.9525, -8.9581, -9.9486, -7.4133, -8.3277, -7.373, -3.677, -10.8803, -8.2291, 3.024, -10.916, -10.9592, 0.5619, -9.8831, -11.147, -0.1382, -13.0824, -8.5822, 4.5149, -13.3442, -7.3405, 4.448, -14.9903, -3.0215, 6.5801, -14.1111, -5.4514, 4.448, -14.9903, -3.0215, 4.8138, -15.8368, 0.4243, 6.5801, -14.1111, -5.4514, 8.4885, -14.0115, -0.3547, 6.5047, -15.2524, 2.6854, 8.7208, -12.7341, 6.3121, 4.5769, -15.3613, 4.4125, 2.9061, -14.0988, 6.7583, 8.7208, -12.7341, 6.3121, 2.9061, -14.0988, 6.7583, 3.8109, -10.5305, 10.1392, 8.7208, -12.7341, 6.3121, -4.4551, -11.0474, 6.8801, -6.307, -8.3423, 11.2346, -3.7524, -8.9995, 11.3529, -7.5752, -11.4033, -0.3309, -9.7004, -8.4127, 4.4721, -6.3049, -11.3147, 5.1223, -8.7559, -9.6848, -3.9077, -9.66, -8.5366, -1.2964, -7.5752, -11.4033, -0.3309, 13.7044, 0.2967, -6.8579, 11.938, -4.2894, -6.9096, 13.4537, -6.1315, -3.2228, 12.8343, 8.4486, -4.9556, 12.0643, 4.2997, -7.7864, 15.3956, 3.3148, -3.3124, 11.938, -4.2894, -6.9096, 9.0041, -9.6779, -7.9623, 13.4537, -6.1315, -3.2228, 15.3956, 3.3148, -3.3124, 13.7044, 0.2967, -6.8579, 15.9399, 0.4328, -2.2386, 13.7044, 0.2967, -6.8579, 13.4537, -6.1315, -3.2228, 15.9399, 0.4328, -2.2386, 12.2209, 10.8528, -0.1651, 15.0045, 6.8554, -3.0482, 14.9213, 7.8508, 0.2176, 15.9399, 0.4328, -2.2386, 13.4537, -6.1315, -3.2228, 15.6243, -3.2711, 0.7179, 15.6243, -3.2711, 0.7179, 13.4537, -6.1315, -3.2228, 13.0282, -7.7577, 0.7452, 14.9213, 7.8508, 0.2176, 15.0045, 6.8554, -3.0482, 16.1533, 5.2154, 1.7056, 15.9399, 0.4328, -2.2386, 16.0872, -1.6564, 4.911, 16.5865, 2.9902, 2.39, 14.9213, 7.8508, 0.2176, 16.1533, 5.2154, 1.7056, 13.9423, 8.6394, 5.4138, 16.5865, 2.9902, 2.39, 14.9116, -0.7472, 8.1925, 14.9724, 4.9139, 7.4925, 8.1911, -5.9533, -10.1392, 5.722, -9.46, -9.7368, 9.0041, -9.6779, -7.9623, 7.6715, -1.2868, -11.8088, 8.1911, -5.9533, -10.1392, 13.7044, 0.2967, -6.8579, 12.2209, 10.8528, -0.1651, 13.9423, 8.6394, 5.4138, 11.1853, 11.2138, 3.9874, 13.9423, 8.6394, 5.4138, 14.9724, 4.9139, 7.4925, 10.9575, 7.5845, 8.9409, 14.9724, 4.9139, 7.4925, 13.7653, 3.7939, 9.4701, 10.9575, 7.5845, 8.9409, 16.0872, -1.6564, 4.911, 12.337, -5.5218, 9.1824, 14.9116, -0.7472, 8.1925, 11.9125, -10.7668, 2.283, 10.9839, -10.5755, 5.8525, 16.0872, -1.6564, 4.911, 11.9125, -10.7668, 2.283, 8.4885, -14.0115, -0.3547, 8.7208, -12.7341, 6.3121, 4.5149, -13.3442, -7.3405, 6.5801, -14.1111, -5.4514, 8.3849, -11.3877, -5.2152, 9.0041, -9.6779, -7.9623, 5.722, -9.46, -9.7368, 4.5149, -13.3442, -7.3405, 9.0041, -9.6779, -7.9623, 4.5149, -13.3442, -7.3405, 8.3849, -11.3877, -5.2152, -5.9057, -5.9355, -11.4521, -4.9525, -8.9581, -9.9486, -3.1778, -6.2083, -12.0183, -8.3902, -3.8558, -9.8596, -5.9057, -5.9355, -11.4521, -4.8452, -2.1355, -12.5266, -5.2933, 0.5736, -13.5054, -8.3902, -3.8558, -9.8596, -4.8452, -2.1355, -12.5266, -5.9057, -5.9355, -11.4521, -3.1778, -6.2083, -12.0183, -4.8452, -2.1355, -12.5266, -4.9525, -8.9581, -9.9486, -1.6059, -7.3163, -11.1603, -3.1778, -6.2083, -12.0183, -3.1778, -6.2083, -12.0183, -1.6059, -7.3163, -11.1603, 0.6408, -1.7833, -13.5519, -4.8452, -2.1355, -12.5266, -3.1778, -6.2083, -12.0183, -2.7425, 2.214, -14.3849, -3.1778, -6.2083, -12.0183, 0.6408, -1.7833, -13.5519, -2.7425, 2.214, -14.3849, 0.6408, -1.7833, -13.5519, -1.6059, -7.3163, -11.1603, 0.5619, -9.8831, -11.147, -1.2902, 5.3127, -13.8161, -2.7425, 2.214, -14.3849, 0.3818, 3.4808, -14.936, 0.5619, -9.8831, -11.147, 4.2944, -7.0748, -11.3088, 4.7384, -2.2997, -13.1355, -1.2902, 5.3127, -13.8161, 3.1695, 6.8099, -12.317, 0.6414, 8.5215, -13.1179, 0.6414, 8.5215, -13.1179, 3.1695, 6.8099, -12.317, 2.6174, 10.2857, -11.7952, 3.6127, 2.684, -14.0745, 8.4565, 5.2178, -9.7197, 6.4324, 8.8368, -9.7867, 3.1695, 6.8099, -12.317, 3.6127, 2.684, -14.0745, 6.4324, 8.8368, -9.7867, -8.9279, 2.1604, -10.461, -10.0241, -3.3802, -7.9901, -8.3902, -3.8558, -9.8596, -8.9279, 2.1604, -10.461, -8.3902, -3.8558, -9.8596, -5.2933, 0.5736, -13.5054, -9.2651, 7.1828, -8.9193, -7.2873, 5.2814, -12.0242, -8.4424, 9.0234, -8.9873, -5.2218, 7.7415, -12.0434, -1.2902, 5.3127, -13.8161, -1.9464, 8.3913, -11.8191, -1.9464, 8.3913, -11.8191, -1.2902, 5.3127, -13.8161, 0.6414, 8.5215, -13.1179, 2.6174, 10.2857, -11.7952, 3.1695, 6.8099, -12.317, 6.4324, 8.8368, -9.7867, 8.4565, 5.2178, -9.7197, 3.6127, 2.684, -14.0745, 9.8385, 2.2943, -10.0318, 4.7384, -2.2997, -13.1355, 8.1911, -5.9533, -10.1392, 7.6715, -1.2868, -11.8088, 4.2944, -7.0748, -11.3088, 3.024, -10.916, -10.9592, 5.722, -9.46, -9.7368, -3.677, -10.8803, -8.2291, 0.5619, -9.8831, -11.147, -1.6059, -7.3163, -11.1603, 5.1925, 10.8524, -7.8859, 3.1081, 12.3027, -6.0776, 0.4092, 12.8876, -8.3019, 7.5323, 12.067, 5.1964, 12.2209, 10.8528, -0.1651, 11.1853, 11.2138, 3.9874, 7.5323, 12.067, 5.1964, 7.6388, 13.1117, 0.4118, 12.2209, 10.8528, -0.1651, -2.1542, 11.5987, -10.4504, -2.7242, 13.1256, -8.5261, -5.527, 11.7333, -9.1936, -8.4424, 9.0234, -8.9873, -5.527, 11.7333, -9.1936, -7.5204, 10.6368, -4.3377, 7.556, 11.8733, -4.9153, 5.6548, 12.6525, -2.3553, 3.1081, 12.3027, -6.0776, 0.4092, 12.8876, -8.3019, -3.5893, 12.7099, -5.7616, -2.7242, 13.1256, -8.5261, -5.527, 11.7333, -9.1936, -3.5893, 12.7099, -5.7616, -7.5204, 10.6368, -4.3377, -3.5893, 12.7099, -5.7616, -3.2671, 13.748, -2.9064, -7.5204, 10.6368, -4.3377, 5.6548, 12.6525, -2.3553, -3.2671, 13.748, -2.9064, -3.5893, 12.7099, -5.7616, 5.6548, 12.6525, -2.3553, 4.3174, 12.9628, 0.5361, -3.2671, 13.748, -2.9064, -3.2671, 13.748, -2.9064, -4.2971, 12.7316, -0.6793, -7.5204, 10.6368, -4.3377, 4.3174, 12.9628, 0.5361, 0.0394, 12.4435, 2.9569, -3.2671, 13.748, -2.9064, 11.1853, 11.2138, 3.9874, 5.7385, 6.5528, 10.9539, 7.5323, 12.067, 5.1964, 7.5323, 12.067, 5.1964, 5.7385, 6.5528, 10.9539, 3.2136, 7.3412, 10.9454, 0.231, 8.9706, 8.1868, 3.2136, 7.3412, 10.9454, 1.1639, 4.8215, 12.5671, 0.6414, 8.5215, -13.1179, -2.1542, 11.5987, -10.4504, -1.9464, 8.3913, -11.8191, -5.2218, 7.7415, -12.0434, -2.1542, 11.5987, -10.4504, -5.527, 11.7333, -9.1936, -8.4424, 9.0234, -8.9873, -7.5204, 10.6368, -4.3377, -9.021, 8.338, -6.2258, -9.021, 8.338, -6.2258, -7.5204, 10.6368, -4.3377, -7.6341, 7.278, -0.705, -7.5204, 10.6368, -4.3377, -4.2971, 12.7316, -0.6793, -4.3264, 9.5943, 3.8005, -4.5029, 7.2511, 8.1261, -7.7474, 6.6973, 9.044, -4.3264, 9.5943, 3.8005, 0.231, 8.9706, 8.1868, -3.0886, 6.201, 10.693, -1.9008, 10.0617, 5.4223, -3.0886, 6.201, 10.693, 1.1639, 4.8215, 12.5671, -4.1962, 3.6316, 12.4965, 0.231, 8.9706, 8.1868, 1.1639, 4.8215, 12.5671, -3.0886, 6.201, 10.693, 3.2136, 7.3412, 10.9454, 5.7385, 6.5528, 10.9539, 1.1639, 4.8215, 12.5671, 11.1853, 11.2138, 3.9874, 10.9575, 7.5845, 8.9409, 5.7385, 6.5528, 10.9539, 13.9423, 8.6394, 5.4138, 10.9575, 7.5845, 8.9409, 11.1853, 11.2138, 3.9874, 12.2209, 10.8528, -0.1651, 5.6548, 12.6525, -2.3553, 10.7129, 10.2673, -4.8433, 7.6388, 13.1117, 0.4118, 5.6548, 12.6525, -2.3553, 12.2209, 10.8528, -0.1651, 10.1231, 1.4147, 12.6076, 14.9116, -0.7472, 8.1925, 9.4301, -2.9065, 12.6084, 10.1231, 1.4147, 12.6076, 13.7653, 3.7939, 9.4701, 14.9116, -0.7472, 8.1925, 10.7129, 10.2673, -4.8433, 5.6548, 12.6525, -2.3553, 7.556, 11.8733, -4.9153, 8.7208, -12.7341, 6.3121, 6.1744, -7.0748, 12.6682, 12.337, -5.5218, 9.1824, 9.4301, -2.9065, 12.6084, 5.7194, 1.3876, 13.9652, 10.1231, 1.4147, 12.6076, 10.1231, 1.4147, 12.6076, 5.7194, 1.3876, 13.9652, 8.9171, 5.424, 11.7874, 6.1744, -7.0748, 12.6682, 1.3021, -5.0475, 14.4274, 5.0071, -3.1825, 14.751, 5.0071, -3.1825, 14.751, 3.3157, -1.8047, 15.256, 5.7194, 1.3876, 13.9652, 2.6835, -7.8112, 14.1327, -0.3107, -10.6812, 11.2934, -0.9857, -8.5465, 13.7096, 2.6835, -7.8112, 14.1327, -0.9857, -8.5465, 13.7096, -2.5633, -6.2503, 13.5874, 1.3021, -5.0475, 14.4274, -2.5633, -6.2503, 13.5874, -5.1473, -4.4071, 14.3296, 1.3021, -5.0475, 14.4274, 3.3157, -1.8047, 15.256, 5.0071, -3.1825, 14.751, 1.3021, -5.0475, 14.4274, -5.1473, -4.4071, 14.3296, 3.3157, -1.8047, 15.256, 3.3157, -1.8047, 15.256, -5.1473, -4.4071, 14.3296, -2.4223, 0.3108, 14.6141, 3.3157, -1.8047, 15.256, -2.4223, 0.3108, 14.6141, 5.7194, 1.3876, 13.9652, -0.9857, -8.5465, 13.7096, -3.7524, -8.9995, 11.3529, -2.5633, -6.2503, 13.5874, -2.5633, -6.2503, 13.5874, -6.307, -8.3423, 11.2346, -5.1473, -4.4071, 14.3296, -2.4223, 0.3108, 14.6141, -7.0534, -1.0009, 14.0828, -4.1962, 3.6316, 12.4965, -2.5633, -6.2503, 13.5874, -3.7524, -8.9995, 11.3529, -6.307, -8.3423, 11.2346, -5.1473, -4.4071, 14.3296, -8.4907, -4.6953, 12.2256, -7.0534, -1.0009, 14.0828, -6.307, -8.3423, 11.2346, -7.9661, -7.0799, 10.4253, -8.4907, -4.6953, 12.2256, -7.0534, -1.0009, 14.0828, -9.314, -0.8806, 11.8205, -8.7905, 2.3689, 11.5619, 12.337, -5.5218, 9.1824, 9.4301, -2.9065, 12.6084, 14.9116, -0.7472, 8.1925, -2.0816, -12.5889, 8.0166, -0.3107, -10.6812, 11.2934, 1.0966, -13.0593, 8.8127, -3.7524, -8.9995, 11.3529, -0.3107, -10.6812, 11.2934, -2.0816, -12.5889, 8.0166, 8.9171, 5.424, 11.7874, 1.1639, 4.8215, 12.5671, 5.7385, 6.5528, 10.9539, 5.7194, 1.3876, 13.9652, 1.1639, 4.8215, 12.5671, 8.9171, 5.424, 11.7874, -2.4223, 0.3108, 14.6141, -4.1962, 3.6316, 12.4965, 1.1639, 4.8215, 12.5671, -3.0886, 6.201, 10.693, -4.1962, 3.6316, 12.4965, -7.7474, 6.6973, 9.044, -8.7905, 2.3689, 11.5619, -10.7211, 3.3903, 7.9603, -7.7474, 6.6973, 9.044, 4.448, -14.9903, -3.0215, 1.3658, -15.4452, 0.4827, 4.8138, -15.8368, 0.4243, 4.448, -14.9903, -3.0215, 1.955, -14.166, -6.2994, 1.3658, -15.4452, 0.4827, 3.8109, -10.5305, 10.1392, 1.0966, -13.0593, 8.8127, -0.3107, -10.6812, 11.2934, -10.7211, 3.3903, 7.9603, -11.8584, -1.4498, 5.4557, -11.0284, 3.8324, 5.8694, -9.7004, -8.4127, 4.4721, -11.3858, -5.3405, 1.7739, -11.8584, -1.4498, 5.4557, -11.0284, 3.8324, 5.8694, -11.8584, -1.4498, 5.4557, -11.4016, 0.0921, 1.7123, -9.7649, 5.9214, 3.7979, -9.4783, 3.355, -0.8176, -7.6341, 7.278, -0.705, -11.4016, 0.0921, 1.7123, -8.5164, 1.0691, -3.4667, -9.4783, 3.355, -0.8176, -9.4783, 3.355, -0.8176, -9.2957, 3.7687, -4.0059, -7.6341, 7.278, -0.705, -9.66, -8.5366, -1.2964, -10.0241, -3.3802, -7.9901, -10.2259, -3.588, -1.8012, -10.2259, -3.588, -1.8012, -10.0835, 0.5657, -6.8573, -8.5164, 1.0691, -3.4667, -8.5164, 1.0691, -3.4667, -9.2957, 3.7687, -4.0059, -9.4783, 3.355, -0.8176, -10.0835, 0.5657, -6.8573, -9.2651, 7.1828, -8.9193, -9.021, 8.338, -6.2258, -8.4907, -4.6953, 12.2256, -9.7004, -8.4127, 4.4721, -11.8584, -1.4498, 5.4557, -9.021, 8.338, -6.2258, -9.2651, 7.1828, -8.9193, -8.4424, 9.0234, -8.9873, -10.0835, 0.5657, -6.8573, -8.9279, 2.1604, -10.461, -9.2651, 7.1828, -8.9193, -10.0241, -3.3802, -7.9901, -8.9279, 2.1604, -10.461, -10.0835, 0.5657, -6.8573, -9.2571, -7.0003, -6.5187, -7.4133, -8.3277, -7.373, -8.3902, -3.8558, -9.8596, -8.7559, -9.6848, -3.9077, -7.4133, -8.3277, -7.373, -9.2571, -7.0003, -6.5187, -7.5752, -11.4033, -0.3309, -9.66, -8.5366, -1.2964, -9.7004, -8.4127, 4.4721, -7.4133, -8.3277, -7.373, -8.7559, -9.6848, -3.9077, -3.677, -10.8803, -8.2291, -2.0311, -12.5338, -8.1448, 0.7469, -14.6159, -3.4901, -0.1382, -13.0824, -8.5822, -2.0311, -12.5338, -8.1448, -3.3501, -13.5972, -1.632, 0.7469, -14.6159, -3.4901, -7.5752, -11.4033, -0.3309, -4.6769, -12.1607, 1.2295, -3.3501, -13.5972, -1.632, -9.7004, -8.4127, 4.4721, -6.307, -8.3423, 11.2346, -6.3049, -11.3147, 5.1223, -7.9661, -7.0799, 10.4253, -6.307, -8.3423, 11.2346, -9.7004, -8.4127, 4.4721, -4.6769, -12.1607, 1.2295, -0.7631, -13.8699, 0.3692, -3.3501, -13.5972, -1.632, -0.7631, -13.8699, 0.3692, -4.6769, -12.1607, 1.2295, -1.5252, -12.86, 4.7836, 0.7469, -14.6159, -3.4901, -0.7631, -13.8699, 0.3692, 1.3658, -15.4452, 0.4827, 1.3658, -15.4452, 0.4827, -0.7631, -13.8699, 0.3692, 1.8809, -15.1379, 4.4689, -4.6769, -12.1607, 1.2295, -6.3049, -11.3147, 5.1223, -4.4551, -11.0474, 6.8801, -0.7631, -13.8699, 0.3692, -1.5252, -12.86, 4.7836, 1.8809, -15.1379, 4.4689, 1.8809, -15.1379, 4.4689, 6.5047, -15.2524, 2.6854, 4.8138, -15.8368, 0.4243, 1.8809, -15.1379, 4.4689, 4.5769, -15.3613, 4.4125, 6.5047, -15.2524, 2.6854, -1.5252, -12.86, 4.7836, -4.4551, -11.0474, 6.8801, -2.0816, -12.5889, 8.0166, 1.8809, -15.1379, 4.4689, 2.9061, -14.0988, 6.7583, 4.5769, -15.3613, 4.4125, 4.5769, -15.3613, 4.4125, 8.7208, -12.7341, 6.3121, 6.5047, -15.2524, 2.6854, -7.1124, -7.6191, -9.2066, -7.4133, -8.3277, -7.373, -4.9525, -8.9581, -9.9486, 0.5619, -9.8831, -11.147, -3.677, -10.8803, -8.2291, -2.0311, -12.5338, -8.1448, 0.5619, -9.8831, -11.147, -2.0311, -12.5338, -8.1448, -0.1382, -13.0824, -8.5822, 3.024, -10.916, -10.9592, -0.1382, -13.0824, -8.5822, 2.3498, -12.6601, -8.0134, 2.3498, -12.6601, -8.0134, 4.5149, -13.3442, -7.3405, 3.024, -10.916, -10.9592, 6.5801, -14.1111, -5.4514, 4.8138, -15.8368, 0.4243, 8.4885, -14.0115, -0.3547, 4.8138, -15.8368, 0.4243, 6.5047, -15.2524, 2.6854, 8.4885, -14.0115, -0.3547, -2.0816, -12.5889, 8.0166, 1.0966, -13.0593, 8.8127, 2.9061, -14.0988, 6.7583, 1.0966, -13.0593, 8.8127, 3.8109, -10.5305, 10.1392, 2.9061, -14.0988, 6.7583, -4.4551, -11.0474, 6.8801, -3.7524, -8.9995, 11.3529, -2.0816, -12.5889, 8.0166, -6.3049, -11.3147, 5.1223, -6.307, -8.3423, 11.2346, -4.4551, -11.0474, 6.8801, 12.8343, 8.4486, -4.9556, 6.4324, 8.8368, -9.7867, 8.4565, 5.2178, -9.7197, 10.7129, 10.2673, -4.8433, 6.4324, 8.8368, -9.7867, 12.8343, 8.4486, -4.9556, -3.677, -10.8803, -8.2291, -8.7559, -9.6848, -3.9077, -7.5752, -11.4033, -0.3309, 13.7044, 0.2967, -6.8579, 8.1911, -5.9533, -10.1392, 11.938, -4.2894, -6.9096, 8.1911, -5.9533, -10.1392, 9.0041, -9.6779, -7.9623, 11.938, -4.2894, -6.9096, 9.8385, 2.2943, -10.0318, 13.7044, 0.2967, -6.8579, 12.0643, 4.2997, -7.7864, 8.4565, 5.2178, -9.7197, 12.0643, 4.2997, -7.7864, 12.8343, 8.4486, -4.9556, 16.0872, -1.6564, 4.911, 13.0282, -7.7577, 0.7452, 11.9125, -10.7668, 2.283, 16.0872, -1.6564, 4.911, 15.6243, -3.2711, 0.7179, 13.0282, -7.7577, 0.7452, 12.0643, 4.2997, -7.7864, 13.7044, 0.2967, -6.8579, 15.3956, 3.3148, -3.3124, 12.8343, 8.4486, -4.9556, 15.3956, 3.3148, -3.3124, 15.0045, 6.8554, -3.0482, 12.8343, 8.4486, -4.9556, 12.2209, 10.8528, -0.1651, 10.7129, 10.2673, -4.8433, 9.0041, -9.6779, -7.9623, 8.3849, -11.3877, -5.2152, 13.4537, -6.1315, -3.2228, 15.3956, 3.3148, -3.3124, 15.9399, 0.4328, -2.2386, 15.0045, 6.8554, -3.0482, 12.8343, 8.4486, -4.9556, 15.0045, 6.8554, -3.0482, 12.2209, 10.8528, -0.1651, 15.0045, 6.8554, -3.0482, 15.9399, 0.4328, -2.2386, 16.5865, 2.9902, 2.39, 15.0045, 6.8554, -3.0482, 16.5865, 2.9902, 2.39, 16.1533, 5.2154, 1.7056, 12.2209, 10.8528, -0.1651, 14.9213, 7.8508, 0.2176, 13.9423, 8.6394, 5.4138, 15.6243, -3.2711, 0.7179, 16.0872, -1.6564, 4.911, 15.9399, 0.4328, -2.2386, 16.5865, 2.9902, 2.39, 14.9724, 4.9139, 7.4925, 16.1533, 5.2154, 1.7056, 3.1695, 6.8099, -12.317, 0.3818, 3.4808, -14.936, 3.6127, 2.684, -14.0745, 3.1695, 6.8099, -12.317, -1.2902, 5.3127, -13.8161, 0.3818, 3.4808, -14.936, 16.0872, -1.6564, 4.911, 14.9116, -0.7472, 8.1925, 16.5865, 2.9902, 2.39, 16.1533, 5.2154, 1.7056, 14.9724, 4.9139, 7.4925, 13.9423, 8.6394, 5.4138, 3.024, -10.916, -10.9592, 4.5149, -13.3442, -7.3405, 5.722, -9.46, -9.7368, 9.8385, 2.2943, -10.0318, 7.6715, -1.2868, -11.8088, 13.7044, 0.2967, -6.8579, 8.4565, 5.2178, -9.7197, 9.8385, 2.2943, -10.0318, 12.0643, 4.2997, -7.7864, 6.4324, 8.8368, -9.7867, 10.7129, 10.2673, -4.8433, 7.556, 11.8733, -4.9153, 14.9116, -0.7472, 8.1925, 13.7653, 3.7939, 9.4701, 14.9724, 4.9139, 7.4925, 10.9839, -10.5755, 5.8525, 12.337, -5.5218, 9.1824, 16.0872, -1.6564, 4.911, 8.7208, -12.7341, 6.3121, 10.9839, -10.5755, 5.8525, 11.9125, -10.7668, 2.283, 8.4885, -14.0115, -0.3547, 11.9125, -10.7668, 2.283, 13.0282, -7.7577, 0.7452, 13.4537, -6.1315, -3.2228, 8.4885, -14.0115, -0.3547, 13.0282, -7.7577, 0.7452, 8.3849, -11.3877, -5.2152, 6.5801, -14.1111, -5.4514, 8.4885, -14.0115, -0.3547, 8.3849, -11.3877, -5.2152, 8.4885, -14.0115, -0.3547, 13.4537, -6.1315, -3.2228, -5.2933, 0.5736, -13.5054, -2.7425, 2.214, -14.3849, -7.2873, 5.2814, -12.0242, -2.7425, 2.214, -14.3849, -5.2218, 7.7415, -12.0434, -7.2873, 5.2814, -12.0242, -4.8452, -2.1355, -12.5266, -2.7425, 2.214, -14.3849, -5.2933, 0.5736, -13.5054, -2.7425, 2.214, -14.3849, -1.2902, 5.3127, -13.8161, -5.2218, 7.7415, -12.0434, -2.7425, 2.214, -14.3849, 0.6408, -1.7833, -13.5519, 0.3818, 3.4808, -14.936, 0.5619, -9.8831, -11.147, 4.7384, -2.2997, -13.1355, 0.6408, -1.7833, -13.5519, 0.6408, -1.7833, -13.5519, 4.7384, -2.2997, -13.1355, 3.6127, 2.684, -14.0745, 0.6408, -1.7833, -13.5519, 3.6127, 2.684, -14.0745, 0.3818, 3.4808, -14.936, 4.7384, -2.2997, -13.1355, 7.6715, -1.2868, -11.8088, 3.6127, 2.684, -14.0745, -7.4133, -8.3277, -7.373, -7.1124, -7.6191, -9.2066, -8.3902, -3.8558, -9.8596, -7.1124, -7.6191, -9.2066, -5.9057, -5.9355, -11.4521, -8.3902, -3.8558, -9.8596, -8.9279, 2.1604, -10.461, -5.2933, 0.5736, -13.5054, -7.2873, 5.2814, -12.0242, -8.9279, 2.1604, -10.461, -7.2873, 5.2814, -12.0242, -9.2651, 7.1828, -8.9193, -7.2873, 5.2814, -12.0242, -5.2218, 7.7415, -12.0434, -8.4424, 9.0234, -8.9873, 0.4092, 12.8876, -8.3019, -2.1542, 11.5987, -10.4504, 2.6174, 10.2857, -11.7952, 0.4092, 12.8876, -8.3019, -2.7242, 13.1256, -8.5261, -2.1542, 11.5987, -10.4504, 3.6127, 2.684, -14.0745, 7.6715, -1.2868, -11.8088, 9.8385, 2.2943, -10.0318, 4.2944, -7.0748, -11.3088, 8.1911, -5.9533, -10.1392, 4.7384, -2.2997, -13.1355, 4.2944, -7.0748, -11.3088, 5.722, -9.46, -9.7368, 8.1911, -5.9533, -10.1392, 3.024, -10.916, -10.9592, 4.2944, -7.0748, -11.3088, 0.5619, -9.8831, -11.147, -3.677, -10.8803, -8.2291, -1.6059, -7.3163, -11.1603, -4.9525, -8.9581, -9.9486, -7.1124, -7.6191, -9.2066, -4.9525, -8.9581, -9.9486, -5.9057, -5.9355, -11.4521 )

[node name="ast_3_cr" instance=ExtResource( 1 )]
script = ExtResource( 2 )

[node name="StaticBody" type="StaticBody" parent="ast_3_cr" index="0"]

[node name="CollisionShape" type="CollisionShape" parent="ast_3_cr/StaticBody" index="0"]
shape = SubResource( 1 )

[connection signal="input_event" from="ast_3_cr/StaticBody" to="." method="_on_StaticBody_input_event"]
