<?xml version="1.0" encoding="UTF-8" standalone="no"?>
<svg
   xmlns:dc="http://purl.org/dc/elements/1.1/"
   xmlns:cc="http://creativecommons.org/ns#"
   xmlns:rdf="http://www.w3.org/1999/02/22-rdf-syntax-ns#"
   xmlns:svg="http://www.w3.org/2000/svg"
   xmlns="http://www.w3.org/2000/svg"
   xmlns:sodipodi="http://sodipodi.sourceforge.net/DTD/sodipodi-0.dtd"
   xmlns:inkscape="http://www.inkscape.org/namespaces/inkscape"
   id="svg1061"
   version="1.1"
   viewBox="0 0 27 27"
   height="27"
   width="27"
   inkscape:version="1.0 (6e3e5246a0, 2020-05-07)"
   sodipodi:docname="pauzo_v2.svg">
  <defs
     id="defs1055" />
  <sodipodi:namedview
     inkscape:guide-bbox="true"
     showguides="true"
     inkscape:window-maximized="1"
     inkscape:window-y="27"
     inkscape:window-x="72"
     inkscape:window-height="836"
     inkscape:window-width="1528"
     showgrid="false"
     inkscape:document-rotation="0"
     inkscape:current-layer="layer1"
     inkscape:document-units="px"
     inkscape:cy="13.313406"
     inkscape:cx="20.96016"
     inkscape:zoom="15.839192"
     inkscape:pageshadow="2"
     inkscape:pageopacity="0.0"
     borderopacity="1.0"
     bordercolor="#666666"
     pagecolor="#ffffff"
     id="base" />
  <metadata
     id="metadata1058">
    <rdf:RDF>
      <cc:Work
         rdf:about="">
        <dc:format>image/svg+xml</dc:format>
        <dc:type
           rdf:resource="http://purl.org/dc/dcmitype/StillImage" />
        <dc:title />
      </cc:Work>
    </rdf:RDF>
  </metadata>
  <g
     id="layer1"
     inkscape:groupmode="layer"
     inkscape:label="Слой 1">
    <rect
       style="fill:none;fill-opacity:1;stroke:#ffffff;stroke-width:1;stroke-miterlimit:4;stroke-dasharray:none"
       id="rect1023"
       width="2.5239463"
       height="18.045362"
       x="8.7020626"
       y="4.4773173" />
    <rect
       y="4.4773188"
       x="15.557599"
       height="18.045362"
       width="2.5239463"
       id="rect1023-3"
       style="fill:none;fill-opacity:1;stroke:#ffffff;stroke-width:1;stroke-miterlimit:4;stroke-dasharray:none" />
    <circle
       style="fill:none;stroke:#ffffff;stroke-width:1.29343;stroke-miterlimit:4;stroke-dasharray:none"
       id="path1042"
       cx="13.5"
       cy="13.5"
       r="12.853285" />
  </g>
  <sodipodi:guide
     position="0,250"
     orientation="0,1"
     inkscape:label="baseline"
     id="guide1628" />
  <sodipodi:guide
     position="0,1000"
     orientation="0,1"
     inkscape:label="ascender"
     id="guide1630" />
  <sodipodi:guide
     position="0,1000"
     orientation="0,1"
     inkscape:label="caps"
     id="guide1632" />
  <sodipodi:guide
     position="0,750"
     orientation="0,1"
     inkscape:label="xheight"
     id="guide1634" />
  <sodipodi:guide
     position="0,0"
     orientation="0,1"
     inkscape:label="descender"
     id="guide1636" />
  <sodipodi:guide
     id="guide1057"
     inkscape:label="baseline"
     orientation="0,1"
     position="0,250" />
  <sodipodi:guide
     id="guide1059"
     inkscape:label="ascender"
     orientation="0,1"
     position="0,1000" />
  <sodipodi:guide
     id="guide1061"
     inkscape:label="caps"
     orientation="0,1"
     position="0,1000" />
  <sodipodi:guide
     id="guide1063"
     inkscape:label="xheight"
     orientation="0,1"
     position="0,750" />
  <sodipodi:guide
     id="guide1065"
     inkscape:label="descender"
     orientation="0,1"
     position="0,0" />
</svg>
