[gd_scene load_steps=4 format=2]

[ext_resource path="res://blokoj/administri/wablono/Lokalizo.tscn" type="PackedScene" id=1]
[ext_resource path="res://blokoj/administri/scenoj/wablono.tscn" type="PackedScene" id=2]
[ext_resource path="res://blokoj/administri/bazo/realeco.gd" type="Script" id=3]

[node name="realeco" instance=ExtResource( 2 )]
script = ExtResource( 3 )

[node name="menuo_name" parent="VBox/HBox_top/top_texture2/HBox_buttons" index="0"]
text = "Реальность"

[node name="GridContainer" parent="VBox/body_texture/ScrollContainer/VBoxContainer" index="0"]
custom_constants/vseparation = 15
custom_constants/hseparation = 3
columns = 2

[node name="Label" type="Label" parent="VBox/body_texture/ScrollContainer/VBoxContainer/GridContainer" index="0"]
margin_right = 86.0
margin_bottom = 17.0
text = "xcvbxcb"

[node name="Lokalizo" parent="VBox/body_texture/ScrollContainer/VBoxContainer/GridContainer" index="1" instance=ExtResource( 1 )]
anchor_right = 0.0
anchor_bottom = 0.0
margin_left = 89.0
margin_right = 389.0
margin_bottom = 17.0

[node name="Label2" type="Label" parent="VBox/body_texture/ScrollContainer/VBoxContainer/GridContainer" index="2"]
margin_top = 32.0
margin_right = 86.0
margin_bottom = 49.0
text = "Проверка "

[node name="TextEdit" type="TextEdit" parent="VBox/body_texture/ScrollContainer/VBoxContainer/GridContainer" index="3"]
margin_left = 89.0
margin_top = 32.0
margin_right = 389.0
margin_bottom = 49.0
size_flags_horizontal = 3
text = "cvkljc hn lkf kldfh;ljdf ;hkl jhfhkljdf ;kljh
"

[connection signal="visibility_changed" from="VBox" to="." method="_on_VBox_visibility_changed"]
[connection signal="pressed" from="VBox/body_texture/ScrollContainer/VBoxContainer/HBoxContainer/save" to="." method="_on_save_pressed"]
[connection signal="pressed" from="VBox/body_texture/ScrollContainer/VBoxContainer/HBoxContainer/delete" to="." method="_on_delete_pressed"]
