[gd_scene load_steps=3 format=2]

[ext_resource path="res://kerno/menuo/resursoj/fonts/18957.otf" type="DynamicFontData" id=3]

[sub_resource type="DynamicFont" id=1]
size = 50
font_data = ExtResource( 3 )

[node name="ScenePage" type="Control"]
anchor_right = 1.0
anchor_bottom = 1.0
__meta__ = {
"_edit_group_": true,
"_edit_use_anchors_": false
}

[node name="Label" type="Label" parent="."]
anchor_right = 1.0
margin_top = 150.0
margin_bottom = 29.0
custom_fonts/font = SubResource( 1 )
custom_colors/font_color = Color( 0.0666667, 0.580392, 0.890196, 1 )
custom_colors/font_color_shadow = Color( 0.0431373, 0.0352941, 0.847059, 1 )
align = 1
valign = 1
